{
	"host": {
		"type"       : "string",
		"description": "Host",
		"default"    : "backend.fairmuse.xyz",
		"input"      : "text"
	},
	"port": {
		"type"       : "integer",
		"description": "Port",
		"default"    : 22,
		"input"      : "number"
	},
	"user": {
		"type"       : "string",
		"description": "User",
		"default"    : "aaudk",
		"input"      : "text"
	},
	"folder": {
		"type"       : "string",
		"description": "Remote folder",
		"default"    : "backend/uploads/pending",
		"input"      : "text"
	},
	"public": {
		"type"       : "string",
		"description": "SH Public Key",
		"default"    : "~/.ssh/id_rsa.pub",
		"input"      : "text"
	},
	"private": {
		"type"       : "string",
		"description": "SSH Private Key",
		"default"    : "~/.ssh/id_rsa",
		"input"      : "text"
	},
	"passphrase": {
		"type"       : "string",
		"description": "SSH Key Passphrase",
		"default"    : null,
		"input"      : "text"
	},
	"password": {
		"type"       : "string",
		"description": "Password",
		"default"    : null,
		"input"      : "password"
	}
}